<?xml version="1.0" encoding="utf-8"?>
<svg width="96" height="96" viewBox="0 0 96 96" fill="none" stroke="none" version="1.1" xmlns:xlink="http://www.w3.org/1999/xlink" xmlns="http://www.w3.org/2000/svg">
  <defs>
    <filter color-interpolation-filters="sRGB" x="-74" y="-74" width="76" height="76" id="filter_1">
      <feFlood flood-opacity="0" result="BackgroundImageFix_1" />
      <feColorMatrix type="matrix" values="0 0 0 0 0 0 0 0 0 0 0 0 0 0 0 0 0 0 1 0" in="SourceAlpha" />
      <feOffset dx="0" dy="0" />
      <feGaussianBlur stdDeviation="0.6" />
      <feColorMatrix type="matrix" values="0 0 0 0 0.392 0 0 0 0 0.392 0 0 0 0 0.392 0 0 0 0.498 0" />
      <feBlend mode="normal" in2="BackgroundImageFix_1" result="Shadow_2" />
      <feBlend mode="normal" in="SourceGraphic" in2="Shadow_2" result="Shape_3" />
    </filter>
    <path id="path_2" d="M72 0C74.2094 0 76 1.79056 76 4L76 72C76 74.2094 74.2094 76 72 76L4 76C1.79056 76 0 74.2094 0 72L0 4C0 1.79056 1.79056 0 4 0L72 0Z" />
    <clipPath id="clip_path_3">
      <use xlink:href="#path_2" />
    </clipPath>
  </defs>
  <g id="language-french" opacity="1">
    <path d="M96 0L96 0L96 96L0 96L0 0L96 0Z" style="mix-blend-mode:normal;" />
    <path id="Rectangle" d="M76 0C80.4189 0 84 3.58112 84 8L84 76C84 80.4189 80.4189 84 76 84L8 84C3.58112 84 0 80.4189 0 76L0 8C0 3.58112 3.58112 0 8 0L76 0Z" style="fill:#DFDFDF;mix-blend-mode:normal;" transform="translate(6 6)" />
    <g id="Masked rectangle" transform="translate(10 10)">
      <path id="Mask" d="M72 0C74.2094 0 76 1.79056 76 4L76 72C76 74.2094 74.2094 76 72 76L4 76C1.79056 76 0 74.2094 0 72L0 4C0 1.79056 1.79056 0 4 0L72 0Z" style="fill:#FFFFFF;filter:url(#filter_1);mix-blend-mode:normal;" />
      <g clip-path="url(#clip_path_3)">
        <rect id="left" width="24" height="76" style="fill:#11329C;fill-rule:evenodd;mix-blend-mode:normal;" />
        <rect id="right" width="24" height="76" style="fill:#EE303F;fill-rule:evenodd;mix-blend-mode:normal;" transform="translate(52 0)" />
      </g>
    </g>
  </g>
</svg>